Text · Pretty Tables
…
Cropping
The keyword crop can be used to define how the output will be cropped if the display has limits. The default behavior depends on the property :limit of the io. If io has :limit => true, the default value of crop is :both. Otherwise, if :limit => false or it is not defined at all, then crop defaults to :none.
If pretty_table is called without io, then stdout is wrapped in a IOContext with :limit => true.
The display size can be configured by the keyword display_size, which is a tuple of two Int with the number of rows and columns, respectively. If this keyword is not specified, then it is automatically obtained using the function displaysize(io).

julia> data = Any[1    false      1.0     0x01 ;
                  2     true      2.0     0x02 ;
                  3    false      3.0     0x03 ;
                  4     true      4.0     0x04 ;
                  5    false      5.0     0x05 ;
                  6     true      6.0     0x06 ;];

julia> pretty_table(data, display_size = (11,30))
┌────────┬────────┬────────┬──
│ Col. 1 │ Col. 2 │ Col. 3 │ ⋯
├────────┼────────┼────────┼──
│      1 │  false │    1.0 │ ⋯
│      2 │   true │    2.0 │ ⋯
│      3 │  false │    3.0 │ ⋯
│   ⋮    │   ⋮    │   ⋮    │ ⋱
└────────┴────────┴────────┴──
   1 column and 3 rows omitted
…
julia> data = Any[1    false      1.0     0x01 ;
                  2     true      2.0     0x02 ;
                  3    false      3.0     0x03 ;
                  4     true      4.0     0x04 ;
                  5    false      5.0     0x05 ;
                  6     true      6.0     0x06 ;];

julia> pretty_table(data, display_size = (11,30), vcrop_mode = :middle)
┌────────┬────────┬────────┬──
│ Col. 1 │ Col. 2 │ Col. 3 │ ⋯
├────────┼────────┼────────┼──
│      1 │  false │    1.0 │ ⋯
│      2 │   true │    2.0 │ ⋯
│   ⋮    │   ⋮    │   ⋮    │ ⋱
│      6 │   true │    6.0 │ ⋯
└────────┴────────┴────────┴──
   1 column and 3 rows omitted
…
